verilog102/verilog102.sim/sim_1/behav/xsim/simulate.log
Vivado Simulator 2019.2
Time resolution is 1 ps
===== Simulation ======
[CORRECT] s0 = 0001, s1 = 1011, s2 = 1111, s3 = 1101, op0 = 00, op1 = 11, request = 00, result = 0000
[CORRECT] s0 = 1101, s1 = 0101, s2 = 1001, s3 = 0110, op0 = 11, op1 = 10, request = 11, result = 0000
[CORRECT] s0 = 1001, s1 = 0010, s2 = 1010, s3 = 1101, op0 = 10, op1 = 11, request = 10, result = 0000
[CORRECT] s0 = 1000, s1 = 0100, s2 = 0100, s3 = 0000, op0 = 00, op1 = 01, request = 01, result = 0000
[CORRECT] s0 = 0110, s1 = 0100, s2 = 0110, s3 = 0111, op0 = 10, op1 = 10, request = 01, result = 0110
[CORRECT] s0 = 1000, s1 = 1010, s2 = 1000, s3 = 1011, op0 = 10, op1 = 11, request = 00, result = 0000
[CORRECT] s0 = 0110, s1 = 0001, s2 = 0100, s3 = 0111, op0 = 11, op1 = 10, request = 01, result = 0011
[CORRECT] s0 = 0011, s1 = 1011, s2 = 1011, s3 = 0010, op0 = 00, op1 = 01, request = 00, result = 0000
[CORRECT] s0 = 1011, s1 = 1001, s2 = 0000, s3 = 0100, op0 = 00, op1 = 01, request = 11, result = 1001
[CORRECT] s0 = 0011, s1 = 1001, s2 = 1011, s3 = 0010, op0 = 00, op1 = 01, request = 11, result = 0001
[CORRECT] s0 = 0110, s1 = 0110, s2 = 1001, s3 = 0010, op0 = 11, op1 = 10, request = 11, result = 0000
[CORRECT] s0 = 1001, s1 = 0111, s2 = 0001, s3 = 0011, op0 = 11, op1 = 01, request = 11, result = 0000
[CORRECT] s0 = 0011, s1 = 0111, s2 = 0100, s3 = 0001, op0 = 00, op1 = 01, request = 11, result = 0011
[CORRECT] s0 = 0110, s1 = 1000, s2 = 0111, s3 = 0110, op0 = 10, op1 = 10, request = 01, result = 1110
[CORRECT] s0 = 0101, s1 = 1011, s2 = 1111, s3 = 0010, op0 = 00, op1 = 11, request = 01, result = 0001
[CORRECT] s0 = 1100, s1 = 0110, s2 = 0011, s3 = 1000, op0 = 00, op1 = 00, request = 01, result = 0100
[CORRECT] s0 = 1001, s1 = 1101, s2 = 0110, s3 = 1011, op0 = 10, op1 = 10, request = 01, result = 1101
[CORRECT] s0 = 1110, s1 = 1011, s2 = 0011, s3 = 1100, op0 = 10, op1 = 11, request = 11, result = 1111
[CORRECT] s0 = 1110, s1 = 0000, s2 = 1001, s3 = 0110, op0 = 01, op1 = 10, request = 11, result = 1110
[CORRECT] s0 = 0001, s1 = 1001, s2 = 0000, s3 = 1101, op0 = 11, op1 = 00, request = 11, result = 0000
[CORRECT] s0 = 0110, s1 = 1010, s2 = 0100, s3 = 1001, op0 = 00, op1 = 10, request = 01, result = 0010
[CORRECT] s0 = 1011, s1 = 0110, s2 = 0011, s3 = 1011, op0 = 00, op1 = 11, request = 01, result = 0010
[CORRECT] s0 = 1100, s1 = 0010, s2 = 0110, s3 = 1000, op0 = 00, op1 = 11, request = 01, result = 0000
[CORRECT] s0 = 0100, s1 = 0010, s2 = 0110, s3 = 0000, op0 = 11, op1 = 00, request = 11, result = 0001
[CORRECT] s0 = 0001, s1 = 0111, s2 = 1000, s3 = 1100, op0 = 10, op1 = 10, request = 10, result = 1100
[CORRECT] s0 = 0111, s1 = 1011, s2 = 1001, s3 = 1100, op0 = 10, op1 = 10, request = 11, result = 1111
[CORRECT] s0 = 0010, s1 = 0111, s2 = 1011, s3 = 0011, op0 = 11, op1 = 01, request = 11, result = 0000
[CORRECT] s0 = 0110, s1 = 0011, s2 = 1100, s3 = 1101, op0 = 10, op1 = 00, request = 10, result = 1100
[CORRECT] s0 = 0101, s1 = 1110, s2 = 0001, s3 = 0100, op0 = 00, op1 = 01, request = 10, result = 0000
[CORRECT] s0 = 0011, s1 = 0100, s2 = 0101, s3 = 1101, op0 = 01, op1 = 11, request = 00, result = 0000
[CORRECT] s0 = 0100, s1 = 1101, s2 = 1110, s3 = 0001, op0 = 10, op1 = 01, request = 01, result = 1101
[CORRECT] s0 = 0010, s1 = 0001, s2 = 0010, s3 = 1100, op0 = 01, op1 = 11, request = 10, result = 0000
[CORRECT] s0 = 1000, s1 = 0000, s2 = 1011, s3 = 1100, op0 = 10, op1 = 11, request = 01, result = 1000
[CORRECT] s0 = 0111, s1 = 0011, s2 = 1000, s3 = 1101, op0 = 00, op1 = 10, request = 00, result = 0000
[CORRECT] s0 = 1100, s1 = 0101, s2 = 0011, s3 = 0011, op0 = 10, op1 = 01, request = 01, result = 1101
[CORRECT] s0 = 1101, s1 = 0100, s2 = 1010, s3 = 1110, op0 = 00, op1 = 11, request = 01, result = 0100
[CORRECT] s0 = 0100, s1 = 0011, s2 = 0110, s3 = 0111, op0 = 01, op1 = 00, request = 01, result = 0000
[CORRECT] s0 = 1100, s1 = 0100, s2 = 0101, s3 = 1110, op0 = 00, op1 = 10, request = 11, result = 0100
[CORRECT] s0 = 1110, s1 = 0011, s2 = 1000, s3 = 1011, op0 = 01, op1 = 11, request = 10, result = 0000
[CORRECT] s0 = 1110, s1 = 0011, s2 = 0010, s3 = 0100, op0 = 01, op1 = 00, request = 10, result = 0000
[CORRECT] s0 = 1010, s1 = 0001, s2 = 0011, s3 = 1010, op0 = 10, op1 = 10, request = 01, result = 1011
[CORRECT] s0 = 1011, s1 = 0000, s2 = 0110, s3 = 1011, op0 = 11, op1 = 10, request = 10, result = 1111
[CORRECT] s0 = 1010, s1 = 0111, s2 = 0101, s3 = 0111, op0 = 10, op1 = 11, request = 01, result = 1111
[CORRECT] s0 = 0101, s1 = 1111, s2 = 1100, s3 = 0000, op0 = 10, op1 = 11, request = 11, result = 1111
[CORRECT] s0 = 1010, s1 = 1100, s2 = 0011, s3 = 1010, op0 = 10, op1 = 10, request = 01, result = 1110
[CORRECT] s0 = 0100, s1 = 0001, s2 = 0011, s3 = 1011, op0 = 01, op1 = 00, request = 10, result = 0011
[CORRECT] s0 = 0100, s1 = 1010, s2 = 1100, s3 = 0000, op0 = 00, op1 = 10, request = 01, result = 0000
[CORRECT] s0 = 0010, s1 = 0101, s2 = 0111, s3 = 1100, op0 = 10, op1 = 10, request = 10, result = 1111
[CORRECT] s0 = 0001, s1 = 1011, s2 = 1010, s3 = 1111, op0 = 11, op1 = 11, request = 11, result = 0000
[CORRECT] s0 = 1101, s1 = 0000, s2 = 0011, s3 = 0001, op0 = 01, op1 = 01, request = 01, result = 1101
[CORRECT] s0 = 1111, s1 = 1100, s2 = 0100, s3 = 1001, op0 = 11, op1 = 10, request = 11, result = 0000
[CORRECT] s0 = 1100, s1 = 0111, s2 = 0010, s3 = 0001, op0 = 00, op1 = 00, request = 10, result = 0000
[CORRECT] s0 = 1110, s1 = 0100, s2 = 1111, s3 = 0110, op0 = 10, op1 = 11, request = 10, result = 0000
[CORRECT] s0 = 0000, s1 = 0000, s2 = 1111, s3 = 0001, op0 = 00, op1 = 01, request = 01, result = 0000
[CORRECT] s0 = 1011, s1 = 1001, s2 = 1000, s3 = 1100, op0 = 11, op1 = 00, request = 10, result = 1000
[CORRECT] s0 = 0100, s1 = 0001, s2 = 0010, s3 = 0001, op0 = 01, op1 = 00, request = 01, result = 1000
[CORRECT] s0 = 0011, s1 = 0101, s2 = 1010, s3 = 0001, op0 = 11, op1 = 11, request = 00, result = 0000
[CORRECT] s0 = 0111, s1 = 0001, s2 = 0010, s3 = 0011, op0 = 01, op1 = 01, request = 11, result = 1110
[CORRECT] s0 = 0001, s1 = 1001, s2 = 0101, s3 = 0011, op0 = 00, op1 = 01, request = 10, result = 1000
[CORRECT] s0 = 0110, s1 = 0111, s2 = 1110, s3 = 1001, op0 = 11, op1 = 10, request = 01, result = 0000
[CORRECT] s0 = 1001, s1 = 1000, s2 = 1111, s3 = 0110, op0 = 11, op1 = 11, request = 01, result = 0000
[CORRECT] s0 = 1101, s1 = 0101, s2 = 0101, s3 = 1110, op0 = 00, op1 = 11, request = 00, result = 0000
[CORRECT] s0 = 0001, s1 = 1010, s2 = 0110, s3 = 1100, op0 = 10, op1 = 00, request = 10, result = 0100
[CORRECT] s0 = 1000, s1 = 0010, s2 = 1000, s3 = 1101, op0 = 01, op1 = 00, request = 01, result = 0000
[CORRECT] s0 = 1100, s1 = 1110, s2 = 1101, s3 = 0000, op0 = 00, op1 = 01, request = 01, result = 1100
[CORRECT] s0 = 1000, s1 = 0111, s2 = 1111, s3 = 0010, op0 = 10, op1 = 01, request = 01, result = 1111
[CORRECT] s0 = 1000, s1 = 0001, s2 = 0000, s3 = 1100, op0 = 01, op1 = 00, request = 00, result = 0000
[CORRECT] s0 = 1111, s1 = 0001, s2 = 1010, s3 = 0001, op0 = 10, op1 = 11, request = 00, result = 0000
[CORRECT] s0 = 1000, s1 = 1001, s2 = 1010, s3 = 1101, op0 = 11, op1 = 10, request = 00, result = 0000
[CORRECT] s0 = 0101, s1 = 0101, s2 = 1110, s3 = 1111, op0 = 11, op1 = 00, request = 00, result = 0000
[CORRECT] s0 = 1010, s1 = 1100, s2 = 0110, s3 = 1000, op0 = 11, op1 = 10, request = 10, result = 1110
[CORRECT] s0 = 0000, s1 = 0100, s2 = 0111, s3 = 0010, op0 = 01, op1 = 01, request = 11, result = 0000
[CORRECT] s0 = 0110, s1 = 1011, s2 = 0110, s3 = 0001, op0 = 10, op1 = 01, request = 01, result = 1111
[CORRECT] s0 = 1000, s1 = 0011, s2 = 1111, s3 = 0111, op0 = 11, op1 = 00, request = 00, result = 0000
[CORRECT] s0 = 0001, s1 = 0000, s2 = 1111, s3 = 1001, op0 = 11, op1 = 10, request = 10, result = 1111
[CORRECT] s0 = 1101, s1 = 1111, s2 = 0001, s3 = 0011, op0 = 10, op1 = 10, request = 10, result = 0011
[CORRECT] s0 = 0101, s1 = 0010, s2 = 1001, s3 = 1100, op0 = 01, op1 = 11, request = 01, result = 0100
[CORRECT] s0 = 1111, s1 = 1010, s2 = 0111, s3 = 1101, op0 = 11, op1 = 11, request = 01, result = 0000
[CORRECT] s0 = 0101, s1 = 0100, s2 = 1000, s3 = 1111, op0 = 00, op1 = 00, request = 10, result = 1000
[CORRECT] s0 = 0001, s1 = 0101, s2 = 1110, s3 = 0011, op0 = 10, op1 = 10, request = 01, result = 0101
[CORRECT] s0 = 1000, s1 = 0000, s2 = 1000, s3 = 0001, op0 = 01, op1 = 00, request = 01, result = 1000
[CORRECT] s0 = 0011, s1 = 0110, s2 = 0100, s3 = 1011, op0 = 00, op1 = 11, request = 01, result = 0010
[CORRECT] s0 = 0001, s1 = 1010, s2 = 0001, s3 = 0111, op0 = 00, op1 = 11, request = 00, result = 0000
[CORRECT] s0 = 0000, s1 = 0000, s2 = 0000, s3 = 1000, op0 = 01, op1 = 11, request = 01, result = 0000
[CORRECT] s0 = 1001, s1 = 1101, s2 = 0001, s3 = 1001, op0 = 00, op1 = 00, request = 00, result = 0000
[CORRECT] s0 = 0000, s1 = 1110, s2 = 0110, s3 = 0101, op0 = 11, op1 = 00, request = 10, result = 0100
[CORRECT] s0 = 1010, s1 = 0000, s2 = 1101, s3 = 0000, op0 = 01, op1 = 11, request = 11, result = 1010
[CORRECT] s0 = 1000, s1 = 1110, s2 = 1111, s3 = 1011, op0 = 11, op1 = 00, request = 00, result = 0000
[CORRECT] s0 = 0111, s1 = 1001, s2 = 1110, s3 = 1100, op0 = 00, op1 = 00, request = 01, result = 0001
[CORRECT] s0 = 1001, s1 = 1000, s2 = 0101, s3 = 1010, op0 = 11, op1 = 11, request = 11, result = 0000
[CORRECT] s0 = 0001, s1 = 0110, s2 = 1011, s3 = 0100, op0 = 00, op1 = 00, request = 11, result = 0000
[CORRECT] s0 = 0100, s1 = 0111, s2 = 1000, s3 = 1011, op0 = 00, op1 = 11, request = 00, result = 0000
[CORRECT] s0 = 1010, s1 = 0000, s2 = 0110, s3 = 1001, op0 = 01, op1 = 10, request = 01, result = 1010
[CORRECT] s0 = 1010, s1 = 0100, s2 = 1001, s3 = 0111, op0 = 00, op1 = 00, request = 10, result = 0001
[CORRECT] s0 = 0110, s1 = 1000, s2 = 0110, s3 = 1010, op0 = 00, op1 = 00, request = 00, result = 0000
[CORRECT] s0 = 0111, s1 = 1010, s2 = 1110, s3 = 1000, op0 = 00, op1 = 10, request = 10, result = 1110
[CORRECT] s0 = 0111, s1 = 0110, s2 = 1011, s3 = 0110, op0 = 10, op1 = 00, request = 01, result = 0111
[CORRECT] s0 = 1111, s1 = 1111, s2 = 0011, s3 = 1010, op0 = 11, op1 = 00, request = 11, result = 0000
[CORRECT] s0 = 0101, s1 = 0111, s2 = 0011, s3 = 1010, op0 = 11, op1 = 11, request = 11, result = 0000
[CORRECT] s0 = 1011, s1 = 1110, s2 = 0010, s3 = 0010, op0 = 00, op1 = 01, request = 10, result = 1000
[CORRECT] s0 = 1101, s1 = 0000, s2 = 0010, s3 = 0001, op0 = 00, op1 = 01, request = 10, result = 0100
[CORRECT] s0 = 1010, s1 = 1110, s2 = 0000, s3 = 0011, op0 = 10, op1 = 01, request = 01, result = 1110
[CORRECT] s0 = 1111, s1 = 0001, s2 = 1011, s3 = 0011, op0 = 00, op1 = 00, request = 01, result = 0001
[CORRECT] s0 = 0000, s1 = 0000, s2 = 0000, s3 = 0011, op0 = 10, op1 = 01, request = 00, result = 0000
[CORRECT] s0 = 0011, s1 = 1010, s2 = 1010, s3 = 0101, op0 = 00, op1 = 00, request = 00, result = 0000
[CORRECT] s0 = 0101, s1 = 1100, s2 = 0001, s3 = 0011, op0 = 10, op1 = 01, request = 00, result = 0000
[CORRECT] s0 = 0111, s1 = 1010, s2 = 1101, s3 = 0100, op0 = 11, op1 = 10, request = 01, result = 0000
[CORRECT] s0 = 0000, s1 = 0100, s2 = 0100, s3 = 0001, op0 = 10, op1 = 10, request = 10, result = 0101
[CORRECT] s0 = 1110, s1 = 0000, s2 = 1100, s3 = 0011, op0 = 00, op1 = 11, request = 01, result = 0000
[CORRECT] s0 = 1111, s1 = 0110, s2 = 0011, s3 = 1110, op0 = 11, op1 = 10, request = 10, result = 1111
[CORRECT] s0 = 1011, s1 = 0111, s2 = 1111, s3 = 0100, op0 = 00, op1 = 01, request = 00, result = 0000
[CORRECT] s0 = 1011, s1 = 1001, s2 = 0011, s3 = 0000, op0 = 10, op1 = 10, request = 00, result = 0000
[CORRECT] s0 = 1110, s1 = 0011, s2 = 0011, s3 = 1101, op0 = 01, op1 = 10, request = 00, result = 0000
[CORRECT] s0 = 1000, s1 = 1001, s2 = 1010, s3 = 1110, op0 = 11, op1 = 10, request = 01, result = 0000
[CORRECT] s0 = 1100, s1 = 1100, s2 = 0100, s3 = 0010, op0 = 11, op1 = 01, request = 00, result = 0000
[CORRECT] s0 = 1011, s1 = 0010, s2 = 1101, s3 = 0001, op0 = 11, op1 = 10, request = 00, result = 0000
[CORRECT] s0 = 1010, s1 = 0011, s2 = 0010, s3 = 0010, op0 = 00, op1 = 10, request = 10, result = 0010
[CORRECT] s0 = 1010, s1 = 0000, s2 = 0101, s3 = 0010, op0 = 01, op1 = 00, request = 00, result = 0000
[CORRECT] s0 = 0100, s1 = 1001, s2 = 0011, s3 = 0000, op0 = 11, op1 = 01, request = 00, result = 0000
[CORRECT] s0 = 0000, s1 = 1100, s2 = 1100, s3 = 0011, op0 = 00, op1 = 00, request = 11, result = 0000
[CORRECT] s0 = 0000, s1 = 0010, s2 = 1110, s3 = 0100, op0 = 01, op1 = 00, request = 10, result = 0100
[CORRECT] s0 = 1110, s1 = 1110, s2 = 1001, s3 = 1001, op0 = 00, op1 = 10, request = 11, result = 1110
[CORRECT] s0 = 0101, s1 = 0001, s2 = 1100, s3 = 1100, op0 = 10, op1 = 10, request = 00, result = 0000
[CORRECT] s0 = 0110, s1 = 0110, s2 = 0001, s3 = 0011, op0 = 11, op1 = 01, request = 01, result = 0000
[CORRECT] s0 = 1111, s1 = 1011, s2 = 1101, s3 = 1110, op0 = 10, op1 = 00, request = 11, result = 1111
[CORRECT] s0 = 0100, s1 = 0001, s2 = 1111, s3 = 0001, op0 = 01, op1 = 01, request = 10, result = 1110
[CORRECT] s0 = 0101, s1 = 0000, s2 = 0111, s3 = 0001, op0 = 10, op1 = 01, request = 01, result = 0101
[CORRECT] s0 = 1111, s1 = 1111, s2 = 1011, s3 = 1111, op0 = 10, op1 = 00, request = 01, result = 1111
[CORRECT] s0 = 0000, s1 = 1101, s2 = 0111, s3 = 0011, op0 = 11, op1 = 10, request = 00, result = 0000
[CORRECT] s0 = 0100, s1 = 1101, s2 = 0011, s3 = 1011, op0 = 10, op1 = 11, request = 01, result = 1101
[CORRECT] s0 = 0110, s1 = 1000, s2 = 0011, s3 = 0111, op0 = 00, op1 = 11, request = 01, result = 0000
[CORRECT] s0 = 0010, s1 = 1101, s2 = 1110, s3 = 0110, op0 = 11, op1 = 10, request = 01, result = 0000
[CORRECT] s0 = 0010, s1 = 0010, s2 = 0010, s3 = 1101, op0 = 11, op1 = 11, request = 10, result = 0000
[CORRECT] s0 = 0010, s1 = 1001, s2 = 1000, s3 = 1010, op0 = 00, op1 = 00, request = 00, result = 0000
[CORRECT] s0 = 0000, s1 = 0010, s2 = 0000, s3 = 1001, op0 = 10, op1 = 11, request = 00, result = 0000
[CORRECT] s0 = 0001, s1 = 0010, s2 = 1110, s3 = 1010, op0 = 01, op1 = 00, request = 01, result = 0100
[CORRECT] s0 = 0111, s1 = 0001, s2 = 0001, s3 = 0110, op0 = 01, op1 = 00, request = 01, result = 1110
[CORRECT] s0 = 0001, s1 = 0001, s2 = 1000, s3 = 0001, op0 = 00, op1 = 01, request = 10, result = 0000
[CORRECT] s0 = 0000, s1 = 0111, s2 = 1000, s3 = 1101, op0 = 10, op1 = 00, request = 01, result = 0111
[CORRECT] s0 = 0001, s1 = 0011, s2 = 0011, s3 = 0110, op0 = 01, op1 = 00, request = 10, result = 0010
[CORRECT] s0 = 1111, s1 = 0000, s2 = 1001, s3 = 1000, op0 = 00, op1 = 11, request = 00, result = 0000
[CORRECT] s0 = 0110, s1 = 0111, s2 = 1010, s3 = 0111, op0 = 00, op1 = 10, request = 11, result = 0110
[CORRECT] s0 = 0001, s1 = 0000, s2 = 0101, s3 = 1010, op0 = 01, op1 = 10, request = 10, result = 1111
[CORRECT] s0 = 0101, s1 = 0100, s2 = 0000, s3 = 0001, op0 = 10, op1 = 10, request = 01, result = 0101
[CORRECT] s0 = 1000, s1 = 1010, s2 = 0110, s3 = 0010, op0 = 00, op1 = 01, request = 10, result = 1000
[CORRECT] s0 = 1000, s1 = 1110, s2 = 0100, s3 = 0100, op0 = 10, op1 = 01, request = 01, result = 1110
[CORRECT] s0 = 0001, s1 = 1100, s2 = 1001, s3 = 1001, op0 = 00, op1 = 10, request = 00, result = 0000
[CORRECT] s0 = 1011, s1 = 0001, s2 = 0111, s3 = 0100, op0 = 01, op1 = 11, request = 00, result = 0000
[CORRECT] s0 = 0111, s1 = 1100, s2 = 0000, s3 = 1111, op0 = 00, op1 = 11, request = 00, result = 0000
[CORRECT] s0 = 1100, s1 = 0000, s2 = 1000, s3 = 1111, op0 = 01, op1 = 11, request = 00, result = 0000
[CORRECT] s0 = 1000, s1 = 0010, s2 = 0100, s3 = 0111, op0 = 01, op1 = 11, request = 11, result = 0000
[CORRECT] s0 = 1111, s1 = 0001, s2 = 1111, s3 = 1001, op0 = 01, op1 = 11, request = 00, result = 0000
[CORRECT] s0 = 1011, s1 = 0001, s2 = 1110, s3 = 1101, op0 = 00, op1 = 11, request = 00, result = 0000
[CORRECT] s0 = 1100, s1 = 0000, s2 = 0011, s3 = 1100, op0 = 10, op1 = 11, request = 01, result = 1100
[CORRECT] s0 = 1110, s1 = 0011, s2 = 0101, s3 = 0100, op0 = 10, op1 = 10, request = 01, result = 1111
[CORRECT] s0 = 1111, s1 = 0000, s2 = 0110, s3 = 1011, op0 = 00, op1 = 10, request = 00, result = 0000
[CORRECT] s0 = 1110, s1 = 0001, s2 = 1111, s3 = 1000, op0 = 11, op1 = 11, request = 01, result = 0111
[CORRECT] s0 = 0101, s1 = 0001, s2 = 1000, s3 = 1111, op0 = 01, op1 = 10, request = 01, result = 1010
[CORRECT] s0 = 0000, s1 = 0100, s2 = 0001, s3 = 0000, op0 = 10, op1 = 10, request = 01, result = 0100
[CORRECT] s0 = 0100, s1 = 0000, s2 = 0011, s3 = 0110, op0 = 00, op1 = 10, request = 10, result = 0111
[CORRECT] s0 = 1011, s1 = 0001, s2 = 1000, s3 = 0101, op0 = 01, op1 = 00, request = 01, result = 0110
[CORRECT] s0 = 0100, s1 = 0110, s2 = 1100, s3 = 0011, op0 = 11, op1 = 10, request = 11, result = 0000
[CORRECT] s0 = 0101, s1 = 1111, s2 = 0101, s3 = 0010, op0 = 00, op1 = 01, request = 00, result = 0000
[CORRECT] s0 = 0110, s1 = 1000, s2 = 1000, s3 = 0111, op0 = 10, op1 = 11, request = 11, result = 1110
[CORRECT] s0 = 1111, s1 = 1100, s2 = 0111, s3 = 0110, op0 = 11, op1 = 10, request = 11, result = 0000
[CORRECT] s0 = 0001, s1 = 0111, s2 = 1010, s3 = 0010, op0 = 00, op1 = 01, request = 00, result = 0000
[CORRECT] s0 = 1100, s1 = 1101, s2 = 0110, s3 = 0010, op0 = 00, op1 = 01, request = 00, result = 0000
[CORRECT] s0 = 0111, s1 = 0000, s2 = 0101, s3 = 1010, op0 = 10, op1 = 10, request = 10, result = 1111
[CORRECT] s0 = 1000, s1 = 0001, s2 = 0010, s3 = 0010, op0 = 01, op1 = 01, request = 00, result = 0000
[CORRECT] s0 = 1110, s1 = 0110, s2 = 1000, s3 = 0010, op0 = 10, op1 = 00, request = 00, result = 0000
[CORRECT] s0 = 0110, s1 = 1000, s2 = 0001, s3 = 0100, op0 = 11, op1 = 11, request = 10, result = 0000
[CORRECT] s0 = 1010, s1 = 1001, s2 = 0101, s3 = 1101, op0 = 10, op1 = 11, request = 11, result = 1011
[CORRECT] s0 = 0001, s1 = 0001, s2 = 1110, s3 = 0101, op0 = 10, op1 = 11, request = 01, result = 0001
[CORRECT] s0 = 1101, s1 = 0000, s2 = 0001, s3 = 0001, op0 = 01, op1 = 10, request = 10, result = 0001
[CORRECT] s0 = 1111, s1 = 0010, s2 = 0010, s3 = 0000, op0 = 01, op1 = 01, request = 00, result = 0000
[CORRECT] s0 = 0110, s1 = 0010, s2 = 1011, s3 = 1011, op0 = 11, op1 = 10, request = 10, result = 1011
[CORRECT] s0 = 0001, s1 = 0001, s2 = 0100, s3 = 0000, op0 = 00, op1 = 01, request = 11, result = 0001
[CORRECT] s0 = 0100, s1 = 0011, s2 = 1011, s3 = 0011, op0 = 01, op1 = 01, request = 10, result = 1000
[CORRECT] s0 = 0110, s1 = 1111, s2 = 0100, s3 = 1010, op0 = 10, op1 = 10, request = 11, result = 1111
[CORRECT] s0 = 0001, s1 = 1011, s2 = 0101, s3 = 1100, op0 = 11, op1 = 11, request = 11, result = 0000
[CORRECT] s0 = 1100, s1 = 1110, s2 = 0111, s3 = 0100, op0 = 11, op1 = 11, request = 10, result = 0000
[CORRECT] s0 = 0000, s1 = 0100, s2 = 1011, s3 = 1111, op0 = 01, op1 = 10, request = 10, result = 1111
[CORRECT] s0 = 0111, s1 = 0011, s2 = 0011, s3 = 0001, op0 = 00, op1 = 01, request = 01, result = 0011
[CORRECT] s0 = 1111, s1 = 0100, s2 = 1000, s3 = 0011, op0 = 01, op1 = 10, request = 00, result = 0000
[CORRECT] s0 = 1000, s1 = 0011, s2 = 1000, s3 = 0011, op0 = 01, op1 = 01, request = 10, result = 0000
[CORRECT] s0 = 1101, s1 = 0000, s2 = 1110, s3 = 0001, op0 = 01, op1 = 01, request = 00, result = 0000
[CORRECT] s0 = 0111, s1 = 0010, s2 = 0101, s3 = 0011, op0 = 01, op1 = 01, request = 00, result = 0000
[CORRECT] s0 = 1010, s1 = 0011, s2 = 1100, s3 = 1000, op0 = 01, op1 = 11, request = 10, result = 0000
[CORRECT] s0 = 1011, s1 = 0110, s2 = 0101, s3 = 0101, op0 = 10, op1 = 10, request = 11, result = 1111
[CORRECT] s0 = 1101, s1 = 1111, s2 = 0101, s3 = 0100, op0 = 11, op1 = 01, request = 00, result = 0000
[CORRECT] s0 = 0011, s1 = 0011, s2 = 0000, s3 = 1011, op0 = 00, op1 = 10, request = 01, result = 0011
[CORRECT] s0 = 0111, s1 = 1000, s2 = 0110, s3 = 1011, op0 = 00, op1 = 00, request = 00, result = 0000
[CORRECT] s0 = 1110, s1 = 1100, s2 = 1111, s3 = 0101, op0 = 00, op1 = 10, request = 01, result = 1100
[CORRECT] s0 = 0000, s1 = 0010, s2 = 0110, s3 = 1110, op0 = 01, op1 = 11, request = 10, result = 0000
[CORRECT] s0 = 1100, s1 = 1100, s2 = 1110, s3 = 0110, op0 = 10, op1 = 11, request = 10, result = 0000
[CORRECT] s0 = 1011, s1 = 0010, s2 = 1010, s3 = 1110, op0 = 01, op1 = 00, request = 00, result = 0000
[CORRECT] s0 = 1001, s1 = 1001, s2 = 1000, s3 = 1010, op0 = 11, op1 = 10, request = 00, result = 0000
[CORRECT] s0 = 0010, s1 = 0000, s2 = 1100, s3 = 0101, op0 = 11, op1 = 10, request = 10, result = 1101
[CORRECT] s0 = 0110, s1 = 0001, s2 = 0101, s3 = 0000, op0 = 01, op1 = 11, request = 01, result = 1100
[CORRECT] s0 = 1000, s1 = 0000, s2 = 1110, s3 = 1110, op0 = 11, op1 = 10, request = 00, result = 0000
[CORRECT] s0 = 0111, s1 = 0011, s2 = 0111, s3 = 0010, op0 = 01, op1 = 11, request = 01, result = 1000
[CORRECT] s0 = 1011, s1 = 0110, s2 = 1011, s3 = 1000, op0 = 11, op1 = 10, request = 01, result = 0000
[CORRECT] s0 = 1111, s1 = 1100, s2 = 1000, s3 = 0010, op0 = 10, op1 = 01, request = 00, result = 0000
[CORRECT] s0 = 0100, s1 = 0000, s2 = 0010, s3 = 0000, op0 = 00, op1 = 10, request = 11, result = 0000
[CORRECT] s0 = 1000, s1 = 0101, s2 = 1101, s3 = 1111, op0 = 10, op1 = 10, request = 01, result = 1101
[CORRECT] s0 = 1011, s1 = 0001, s2 = 0010, s3 = 1100, op0 = 10, op1 = 10, request = 10, result = 1110
[CORRECT] s0 = 0001, s1 = 1100, s2 = 1110, s3 = 0001, op0 = 00, op1 = 00, request = 01, result = 0000
[CORRECT] s0 = 1010, s1 = 0001, s2 = 1111, s3 = 1111, op0 = 01, op1 = 00, request = 00, result = 0000
[CORRECT] s0 = 1010, s1 = 1001, s2 = 1001, s3 = 1010, op0 = 11, op1 = 10, request = 00, result = 0000
[CORRECT] s0 = 0000, s1 = 0011, s2 = 1001, s3 = 1011, op0 = 01, op1 = 00, request = 10, result = 1001
[CORRECT] s0 = 0111, s1 = 0100, s2 = 0010, s3 = 1011, op0 = 10, op1 = 00, request = 00, result = 0000
[CORRECT] s0 = 1001, s1 = 0000, s2 = 0000, s3 = 0011, op0 = 01, op1 = 10, request = 00, result = 0000
[CORRECT] s0 = 1001, s1 = 0001, s2 = 0111, s3 = 0011, op0 = 11, op1 = 10, request = 01, result = 0100
[CORRECT] s0 = 0110, s1 = 0000, s2 = 0111, s3 = 0010, op0 = 00, op1 = 01, request = 01, result = 0000
[CORRECT] s0 = 1111, s1 = 1001, s2 = 1100, s3 = 0010, op0 = 11, op1 = 01, request = 11, result = 0000
[CORRECT] s0 = 0101, s1 = 1110, s2 = 1010, s3 = 1111, op0 = 11, op1 = 10, request = 00, result = 0000
[CORRECT] s0 = 1111, s1 = 0110, s2 = 0010, s3 = 1100, op0 = 11, op1 = 00, request = 10, result = 0000
[CORRECT] s0 = 0100, s1 = 1110, s2 = 1110, s3 = 0011, op0 = 00, op1 = 01, request = 00, result = 0000
[CORRECT] s0 = 1001, s1 = 0000, s2 = 1101, s3 = 1110, op0 = 01, op1 = 10, request = 10, result = 1111
[CORRECT] s0 = 1010, s1 = 0101, s2 = 1110, s3 = 0011, op0 = 11, op1 = 01, request = 01, result = 0000
[CORRECT] s0 = 1101, s1 = 0010, s2 = 1100, s3 = 0001, op0 = 11, op1 = 00, request = 00, result = 0000
[CORRECT] s0 = 0011, s1 = 0011, s2 = 1101, s3 = 0111, op0 = 01, op1 = 10, request = 11, result = 1000
[CORRECT] s0 = 0101, s1 = 0001, s2 = 1110, s3 = 1010, op0 = 01, op1 = 00, request = 00, result = 0000
[CORRECT] s0 = 0000, s1 = 0100, s2 = 1001, s3 = 0000, op0 = 00, op1 = 00, request = 11, result = 0000
[CORRECT] s0 = 0001, s1 = 0001, s2 = 1001, s3 = 1111, op0 = 01, op1 = 00, request = 11, result = 0010
[CORRECT] s0 = 1010, s1 = 0010, s2 = 0101, s3 = 0101, op0 = 01, op1 = 10, request = 00, result = 0000
[CORRECT] s0 = 1000, s1 = 0011, s2 = 1011, s3 = 1101, op0 = 01, op1 = 10, request = 01, result = 0000
[CORRECT] s0 = 0000, s1 = 0100, s2 = 1001, s3 = 0110, op0 = 00, op1 = 10, request = 10, result = 1111
[CORRECT] s0 = 1011, s1 = 0101, s2 = 1101, s3 = 0010, op0 = 10, op1 = 00, request = 01, result = 1111
[CORRECT] s0 = 0010, s1 = 0000, s2 = 0000, s3 = 1010, op0 = 00, op1 = 11, request = 11, result = 0000
[CORRECT] s0 = 0100, s1 = 1000, s2 = 0011, s3 = 1110, op0 = 00, op1 = 10, request = 11, result = 0000
[CORRECT] s0 = 0110, s1 = 0001, s2 = 1001, s3 = 1100, op0 = 01, op1 = 11, request = 10, result = 0000
[CORRECT] s0 = 1011, s1 = 0110, s2 = 0110, s3 = 1110, op0 = 10, op1 = 10, request = 01, result = 1111
